4507 4407 184
2276 2792 209
3406 1724 217
4209 3954 189
2664 3733 238
1987 3985 238
2637 2224 209
190 4110 238
2082 907 182
589 4639 238
2421 1675 183
4149 4069 189
4873 894 238
1727 852 182
3910 1312 238
4669 3373 238
3280 1817 217
3679 1815 217
2460 4228 238
1274 2768 209
202 4846 238
3210 1 217
3336 1935 217
4512 3832 215
4093 149 238
675 2264 183
3462 1052 217
118 4880 238
2634 3540 217
3578 1204 217
3633 3630 101
1400 4645 238
864 4007 238
491 283 144
3701 2075 217
263 4812 238
405 4301 238
310 2254 183
4236 3867 202
4274 1259 238
4010 3907 189
914 1647 182
3544 2780 217
4053 918 238
3614 4499 238
2324 4555 238
164 4045 238
2708 645 209
232 3024 217
146 3805 238
1582 1563 154
2490 2334 209
4507 3885 215
2892 3208 217
1083 832 179
1053 3985 238
4198 2440 238
1516 3915 238
1868 721 182
4762 981 238
2427 35 183
1103 4168 238
4737 1874 238
1092 4396 238
4096 2218 238
3196 653 217
1159 4862 238
2722 4630 238
66 4295 238
2618 4677 238
1686 1414 180
3141 2490 217
1926 964 182
3072 2288 217
4228 1191 238
4029 2673 238
2562 489 209
1847 3243 217
2274 4648 238
4368 2451 238
1021 2206 182
1257 3576 217
2783 102 209
4819 419 238
3082 4878 238
78 4419 238
2197 4510 238
388 1865 182
393 533 142
349 3366 217
3555 1486 217
783 3699 217
3613 3060 199
122 1915 182
2072 1680 180
3261 1648 217
2813 4865 238
868 4622 238
170 856 171
1664 1381 172
3859 3575 238
1191 3597 217
4428 4983 210
125 2360 183
380 4853 238
147 291 128
1675 3575 217
1660 4576 238
271 4260 238
3203 4572 238
1210 2897 209
580 4745 238
4091 456 238
4157 3893 189
705 4029 238
3724 4920 215
3724 2568 238
854 4547 238
834 3460 217
3072 651 217
1091 608 179
3934 4852 215
623 4225 238
4794 4673 197
2820 4689 238
1713 2537 209
4453 4288 215
4533 2591 238
2217 915 182
1273 4378 238
3040 497 217
1460 1969 180
4477 4901 197
4640 728 238
381 1823 182
3020 1912 217
723 4865 238
4012 1207 238
4892 837 238
2775 4353 238
4096 1195 238
695 2819 209
4850 265 238
3262 1729 217
3971 601 238
1000 1738 182
254 3996 238
3735 751 238
3674 25 217
4817 3845 215
299 3302 217
4994 429 238
537 3463 217
1215 4965 238
416 7 144
3391 2576 217
238 317 131
3258 273 217
2466 3554 217
1641 2940 217
1871 2988 217
1760 3726 238
1367 4187 238
2565 247 209
4408 50 238
2958 2123 217
3311 899 217
4060 1154 238
3731 2216 238
2407 3996 238
4079 4852 215
1493 4523 238
2797 1716 209
834 464 171
4269 473 238
4519 201 238
1713 3328 217
3013 4020 238
2948 3196 199
3645 4450 238
2203 796 182
3075 2035 217
2628 3863 238
2150 271 182
2314 1021 183
790 4240 238
407 15 144
1250 2932 217
2997 4616 238
47 1988 182
1165 3250 217
1609 828 182
3856 2477 238
2558 2810 191
4892 661 238
1025 2362 183
999 1366 182
2723 3947 238
3009 1703 217
980 4703 238
2762 1527 209
3237 2376 217
2754 4464 238
4531 490 238
78 669 145
22 3106 217
4890 1583 238
1401 2946 217
2093 1684 180
4458 2104 238
4407 1235 238
4012 3119 238
4995 2231 238
2827 3089 217
1844 494 182
4537 528 238
3970 8 238
2446 1234 183
4787 1035 238
491 3768 238
1066 2994 217
2983 4469 238
1422 3338 217
4190 921 238
2045 4322 238
4915 3549 238
348 3277 217
3780 1738 238
4114 4800 215
2018 1070 182
1340 2552 209
2496 488 209
4452 283 238
3153 1374 217
253 1792 182
1765 2836 209
1766 1575 180
4403 4148 215
4599 2542 238
3660 3283 194
3952 4022 189
4574 250 238
4128 1760 238
2724 83 209
1086 2417 183
4281 4059 202
2841 3927 238
3172 1010 217
3630 2046 217
128 2092 182
